%YAML 1.1
%TAG !u! tag:unity3d.com,2011:
--- !u!114 &11400000
MonoBehaviour:
  m_ObjectHideFlags: 0
  m_CorrespondingSourceObject: {fileID: 0}
  m_PrefabInstance: {fileID: 0}
  m_PrefabAsset: {fileID: 0}
  m_GameObject: {fileID: 0}
  m_Enabled: 1
  m_EditorHideFlags: 0
  m_Script: {fileID: 11500000, guid: da4b1f6698e666f4f95d256e4d78b2c7, type: 3}
  m_Name: Stone
  m_EditorClassIdentifier: 
  _name: Stone
  _minValue: 3
  _maxValue: 5
  _spawnRate: 20
  _hp: 2
